{
  "cage": {
    "id": 0,
    "name": "",
    "type": {
      "id": 0,
      "name": ""
    },
    "breed": {
      "id": 0,
      "name": ""
    },
    "sex": "",
    "age": 0,
    "description": "",
    "count": 0,
    "price": 0,
    "uri": ""
  }
}